<svg width="24" height="24" viewBox="0 0 24 24"  xmlns="http://www.w3.org/2000/svg">
<path d="M10.4103 11.0459L7.50361 8.13919L3.83447 11.8081L6.74114 14.7149L6.73927 14.7167L9.87793 17.8553L10.4101 18.3839L10.412 18.3857L13.5506 15.2471L14.0791 14.7149L23.5608 5.23341L19.8918 1.56445L10.4103 11.0459ZM12.4883 14.1846L11.9598 14.7167L10.4103 16.2662L10.4084 16.2644L8.86074 14.7167L8.86261 14.7149L5.95594 11.8081L7.50357 10.2605L10.4103 13.1672L19.8918 3.68573L21.4395 5.23341L12.4883 14.1846Z" />
<path d="M21 21.75H2.25V3H16.3228L17.8228 1.5H0.75V23.25H22.5V8.39508L21 9.89508V21.75Z" />
</svg>
