<svg width="24" height="24" viewBox="0 0 24 24"  xmlns="http://www.w3.org/2000/svg">
<path fill-rule="evenodd" clip-rule="evenodd" d="M2.25 0.75H15.6856L22.125 7.18936V23.25H11.75L13.25 21.75H20.625V9.375H13.5V2.25H3.75V14.25L2.25 15.75V0.75ZM20.625 7.875V7.81064L15.0644 2.25H15V7.875H20.625Z" />
<path d="M15.3106 17.2803L14.25 16.2197L9.9053 20.5644V11H8.4053V20.5644L4.06059 16.2197L3 17.2803L9.1553 23.4356L15.3106 17.2803Z" />
</svg>
