<svg width="24" height="24" viewBox="0 0 24 24"  xmlns="http://www.w3.org/2000/svg">
<g clip-path="url(#clip0)">
<path d="M18.75 22.75V4H5.25V22.75H0.75V24.25H23.25V22.75H18.75ZM17.25 22.75H6.75V5.5H17.25V22.75Z" />
<path d="M14.625 11.8125H16.125V15.1875H14.625V11.8125Z" />
<path fill-rule="evenodd" clip-rule="evenodd" d="M9 3L8 3L8 1L9 1L9 3ZM13 3L11 3L11 1L13 1L13 3ZM16 3L15 3L15 1L16 1L16 3Z" />
<path fill-rule="evenodd" clip-rule="evenodd" d="M4 18L4 19L2 19L2 18L4 18ZM4 14L4 16L2 16L2 14L4 14ZM4 10L4 12L2 12L2 10L4 10ZM4 7L4 8L2 8L2 7L4 7Z" />
<path d="M1 7L3 4L5 7H1Z" />
<path d="M8 4L5 2L8 -1.31134e-07L8 4Z" />
<path d="M16 -1.31134e-07L19 2L16 4L16 -1.31134e-07Z" />
<path d="M5 19L3 22L1 19L5 19Z" />
</g>
<defs>
<clipPath id="clip0">
<rect width="24" height="24" fill="white"/>
</clipPath>
</defs>
</svg>
